module upserv

go 1.20

require (
	github.com/golang-migrate/migrate/v4 v4.15.2
	github.com/google/uuid v1.3.0
	github.com/gorilla/handlers v1.5.1
	github.com/gorilla/mux v1.8.0
	github.com/gorilla/schema v1.2.0
	github.com/patrickmn/go-cache v2.1.0+incompatible
	github.com/sirupsen/logrus v1.9.0
	github.com/stretchr/testify v1.8.0
	github.com/swaggo/http-swagger v1.3.0
	github.com/swaggo/swag v1.8.3
	github.com/tealeg/xlsx v1.0.5
	gitlab.com/AngelX/common v1.1.1
	go.elastic.co/ecslogrus v1.0.0
	golang.org/x/text v0.3.7
	gorm.io/driver/postgres v1.3.7
	gorm.io/gorm v1.23.7
)

require (
	github.com/KyleBanks/depth v1.2.1 // indirect
	github.com/davecgh/go-spew v1.1.1 // indirect
	github.com/felixge/httpsnoop v1.0.1 // indirect
	github.com/go-openapi/jsonpointer v0.19.5 // indirect
	github.com/go-openapi/jsonreference v0.20.0 // indirect
	github.com/go-openapi/spec v0.20.5 // indirect
	github.com/go-openapi/swag v0.19.15 // indirect
	github.com/hashicorp/errwrap v1.1.0 // indirect
	github.com/hashicorp/go-multierror v1.1.1 // indirect
	github.com/jackc/chunkreader/v2 v2.0.1 // indirect
	github.com/jackc/pgconn v1.12.1 // indirect
	github.com/jackc/pgio v1.0.0 // indirect
	github.com/jackc/pgpassfile v1.0.0 // indirect
	github.com/jackc/pgproto3/v2 v2.3.0 // indirect
	github.com/jackc/pgservicefile v0.0.0-20200714003250-2b9c44734f2b // indirect
	github.com/jackc/pgtype v1.11.0 // indirect
	github.com/jackc/pgx/v4 v4.16.1 // indirect
	github.com/jinzhu/inflection v1.0.0 // indirect
	github.com/jinzhu/now v1.1.4 // indirect
	github.com/joho/godotenv v1.4.0 // indirect
	github.com/josharian/intern v1.0.0 // indirect
	github.com/lib/pq v1.10.2 // indirect
	github.com/magefile/mage v1.9.0 // indirect
	github.com/mailru/easyjson v0.7.6 // indirect
	github.com/pmezard/go-difflib v1.0.0 // indirect
	github.com/stretchr/objx v0.4.0 // indirect
	github.com/swaggo/files v0.0.0-20220610200504-28940afbdbfe // indirect
	go.uber.org/atomic v1.7.0 // indirect
	golang.org/x/crypto v0.0.0-20210921155107-089bfa567519 // indirect
	golang.org/x/net v0.0.0-20220722155237-a158d28d115b // indirect
	golang.org/x/sys v0.0.0-20220722155257-8c9f86f7a55f // indirect
	golang.org/x/tools v0.1.12 // indirect
	gopkg.in/ini.v1 v1.66.2 // indirect
	gopkg.in/yaml.v2 v2.4.0 // indirect
	gopkg.in/yaml.v3 v3.0.1 // indirect
)
